{"photos":{"page":11,"pages":11,"perpage":500,"total":5005,"photo":[{"id":"14342845462","owner":"101498034@N07","secret":"08b6d1754e","server":"2930","farm":3,"title":"Look over there","ispublic":1,"isfriend":0,"isfamily":0,"safe":1,"iconurls":{"retina":"https:\/\/farm5.staticflickr.com\/4266\/buddyicons\/101498034@N07_r.jpg?1497405071#101498034@N07","large":"https:\/\/farm5.staticflickr.com\/4266\/buddyicons\/101498034@N07_l.jpg?1497405071#101498034@N07","medium":"https:\/\/farm5.staticflickr.com\/4266\/buddyicons\/101498034@N07_m.jpg?1497405071#101498034@N07","small":"https:\/\/farm5.staticflickr.com\/4266\/buddyicons\/101498034@N07_s.jpg?1497405071#101498034@N07","default":"https:\/\/farm5.staticflickr.com\/4266\/buddyicons\/101498034@N07.jpg?1497405071#101498034@N07"},"license":"0","safety_level":"0","needs_interstitial":0,"description":{"_content":""},"o_width":"2048","o_height":"1152","rotation":0,"dateupload":"1401884666","datetaken":"2014-06-04 05:22:17","datetakengranularity":"0","datetakenunknown":0,"ownername":"komkrit_charoen","owner_datecreate":"2013-09-08 20:42:41","realname":"around_the_world","count_views":"3110","count_faves":"2","count_comments":"0","can_comment":1,"permissions":{"permcomment":3,"permaddmeta":2},"can_addmeta":0,"can_share":1,"can_download":0,"publiceditability":{"cancomment":1,"canaddmeta":0},"isfavorite":0,"media":"photo","media_status":"ready","url_sq":"https:\/\/live.staticflickr.com\/2930\/14342845462_08b6d1754e_s.jpg","url_sq_cdn":"https:\/\/live.staticflickr.com\/2930\/14342845462_08b6d1754e_s.jpg","height_sq":75,"width_sq":75,"url_q":"https:\/\/live.staticflickr.com\/2930\/14342845462_08b6d1754e_q.jpg","url_q_cdn":"https:\/\/live.staticflickr.com\/2930\/14342845462_08b6d1754e_q.jpg","height_q":150,"width_q":150,"url_t":"https:\/\/live.staticflickr.com\/2930\/14342845462_08b6d1754e_t.jpg","url_t_cdn":"https:\/\/live.staticflickr.com\/2930\/14342845462_08b6d1754e_t.jpg","height_t":56,"width_t":100,"url_s":"https:\/\/live.staticflickr.com\/2930\/14342845462_08b6d1754e_m.jpg","url_s_cdn":"https:\/\/live.staticflickr.com\/2930\/14342845462_08b6d1754e_m.jpg","height_s":135,"width_s":240,"url_n":"https:\/\/live.staticflickr.com\/2930\/14342845462_08b6d1754e_n.jpg","url_n_cdn":"https:\/\/live.staticflickr.com\/2930\/14342845462_08b6d1754e_n.jpg","height_n":180,"width_n":320,"url_w":"https:\/\/live.staticflickr.com\/2930\/14342845462_08b6d1754e_w.jpg","url_w_cdn":"https:\/\/live.staticflickr.com\/2930\/14342845462_08b6d1754e_w.jpg","height_w":225,"width_w":400,"url_m":"https:\/\/live.staticflickr.com\/2930\/14342845462_08b6d1754e.jpg","url_m_cdn":"https:\/\/live.staticflickr.com\/2930\/14342845462_08b6d1754e.jpg","height_m":281,"width_m":500,"url_z":"https:\/\/live.staticflickr.com\/2930\/14342845462_08b6d1754e_z.jpg","url_z_cdn":"https:\/\/live.staticflickr.com\/2930\/14342845462_08b6d1754e_z.jpg","height_z":360,"width_z":640,"url_c":"https:\/\/live.staticflickr.com\/2930\/14342845462_08b6d1754e_c.jpg","url_c_cdn":"https:\/\/live.staticflickr.com\/2930\/14342845462_08b6d1754e_c.jpg","height_c":450,"width_c":800,"url_l":"https:\/\/live.staticflickr.com\/2930\/14342845462_08b6d1754e_b.jpg","url_l_cdn":"https:\/\/live.staticflickr.com\/2930\/14342845462_08b6d1754e_b.jpg","height_l":576,"width_l":1024,"url_h":"https:\/\/live.staticflickr.com\/2930\/14342845462_6f2fb4cc18_h.jpg","url_h_cdn":"https:\/\/live.staticflickr.com\/2930\/14342845462_6f2fb4cc18_h.jpg","height_h":900,"width_h":1600,"url_k":"https:\/\/live.staticflickr.com\/2930\/14342845462_e9e8aecc7f_k.jpg","url_k_cdn":"https:\/\/live.staticflickr.com\/2930\/14342845462_e9e8aecc7f_k.jpg","height_k":1152,"width_k":2048,"secret_k":"e9e8aecc7f","secret_h":"6f2fb4cc18","pathalias":"komkrit_charoen","contact_iscontact":0,"contact_isfriend":null,"contact_isfamily":null,"ispro":1,"pro_badge":"standard"},{"id":"14157960357","owner":"101498034@N07","secret":"9902bb82fc","server":"5548","farm":6,"title":"Little Mermaid","ispublic":1,"isfriend":0,"isfamily":0,"safe":0,"iconurls":{"retina":"https:\/\/farm5.staticflickr.com\/4266\/buddyicons\/101498034@N07_r.jpg?1497405071#101498034@N07","large":"https:\/\/farm5.staticflickr.com\/4266\/buddyicons\/101498034@N07_l.jpg?1497405071#101498034@N07","medium":"https:\/\/farm5.staticflickr.com\/4266\/buddyicons\/101498034@N07_m.jpg?1497405071#101498034@N07","small":"https:\/\/farm5.staticflickr.com\/4266\/buddyicons\/101498034@N07_s.jpg?1497405071#101498034@N07","default":"https:\/\/farm5.staticflickr.com\/4266\/buddyicons\/101498034@N07.jpg?1497405071#101498034@N07"},"license":"0","safety_level":"0","needs_interstitial":0,"description":{"_content":"Scarlet"},"o_width":"2048","o_height":"1365","rotation":0,"dateupload":"1401884466","datetaken":"2014-06-04 05:20:40","datetakengranularity":"0","datetakenunknown":0,"ownername":"komkrit_charoen","owner_datecreate":"2013-09-08 20:42:41","realname":"around_the_world","count_views":"3045","count_faves":"1","count_comments":"0","can_comment":1,"permissions":{"permcomment":3,"permaddmeta":2},"can_addmeta":0,"can_share":1,"can_download":0,"publiceditability":{"cancomment":1,"canaddmeta":0},"isfavorite":0,"media":"photo","media_status":"ready","url_sq":"https:\/\/live.staticflickr.com\/5548\/14157960357_9902bb82fc_s.jpg","url_sq_cdn":"https:\/\/live.staticflickr.com\/5548\/14157960357_9902bb82fc_s.jpg","height_sq":75,"width_sq":75,"url_q":"https:\/\/live.staticflickr.com\/5548\/14157960357_9902bb82fc_q.jpg","url_q_cdn":"https:\/\/live.staticflickr.com\/5548\/14157960357_9902bb82fc_q.jpg","height_q":150,"width_q":150,"url_t":"https:\/\/live.staticflickr.com\/5548\/14157960357_9902bb82fc_t.jpg","url_t_cdn":"https:\/\/live.staticflickr.com\/5548\/14157960357_9902bb82fc_t.jpg","height_t":67,"width_t":100,"url_s":"https:\/\/live.staticflickr.com\/5548\/14157960357_9902bb82fc_m.jpg","url_s_cdn":"https:\/\/live.staticflickr.com\/5548\/14157960357_9902bb82fc_m.jpg","height_s":160,"width_s":240,"url_n":"https:\/\/live.staticflickr.com\/5548\/14157960357_9902bb82fc_n.jpg","url_n_cdn":"https:\/\/live.staticflickr.com\/5548\/14157960357_9902bb82fc_n.jpg","height_n":213,"width_n":320,"url_w":"https:\/\/live.staticflickr.com\/5548\/14157960357_9902bb82fc_w.jpg","url_w_cdn":"https:\/\/live.staticflickr.com\/5548\/14157960357_9902bb82fc_w.jpg","height_w":267,"width_w":400,"url_m":"https:\/\/live.staticflickr.com\/5548\/14157960357_9902bb82fc.jpg","url_m_cdn":"https:\/\/live.staticflickr.com\/5548\/14157960357_9902bb82fc.jpg","height_m":333,"width_m":500,"url_z":"https:\/\/live.staticflickr.com\/5548\/14157960357_9902bb82fc_z.jpg","url_z_cdn":"https:\/\/live.staticflickr.com\/5548\/14157960357_9902bb82fc_z.jpg","height_z":427,"width_z":640,"url_c":"https:\/\/live.staticflickr.com\/5548\/14157960357_9902bb82fc_c.jpg","url_c_cdn":"https:\/\/live.staticflickr.com\/5548\/14157960357_9902bb82fc_c.jpg","height_c":533,"width_c":800,"url_l":"https:\/\/live.staticflickr.com\/5548\/14157960357_9902bb82fc_b.jpg","url_l_cdn":"https:\/\/live.staticflickr.com\/5548\/14157960357_9902bb82fc_b.jpg","height_l":683,"width_l":1024,"url_h":"https:\/\/live.staticflickr.com\/5548\/14157960357_a616388d17_h.jpg","url_h_cdn":"https:\/\/live.staticflickr.com\/5548\/14157960357_a616388d17_h.jpg","height_h":1066,"width_h":1600,"url_k":"https:\/\/live.staticflickr.com\/5548\/14157960357_3c50d47551_k.jpg","url_k_cdn":"https:\/\/live.staticflickr.com\/5548\/14157960357_3c50d47551_k.jpg","height_k":1365,"width_k":2048,"secret_k":"3c50d47551","secret_h":"a616388d17","pathalias":"komkrit_charoen","contact_iscontact":0,"contact_isfriend":null,"contact_isfamily":null,"ispro":1,"pro_badge":"standard"},{"id":"14321309676","owner":"101498034@N07","secret":"91bb3a2396","server":"3904","farm":4,"title":"Light of Wisdom (Panorama)","ispublic":1,"isfriend":0,"isfamily":0,"safe":0,"iconurls":{"retina":"https:\/\/farm5.staticflickr.com\/4266\/buddyicons\/101498034@N07_r.jpg?1497405071#101498034@N07","large":"https:\/\/farm5.staticflickr.com\/4266\/buddyicons\/101498034@N07_l.jpg?1497405071#101498034@N07","medium":"https:\/\/farm5.staticflickr.com\/4266\/buddyicons\/101498034@N07_m.jpg?1497405071#101498034@N07","small":"https:\/\/farm5.staticflickr.com\/4266\/buddyicons\/101498034@N07_s.jpg?1497405071#101498034@N07","default":"https:\/\/farm5.staticflickr.com\/4266\/buddyicons\/101498034@N07.jpg?1497405071#101498034@N07"},"license":"0","safety_level":"0","needs_interstitial":0,"description":{"_content":"Panorama"},"o_width":"2048","o_height":"905","rotation":0,"dateupload":"1401884381","datetaken":"2014-06-04 05:18:22","datetakengranularity":"0","datetakenunknown":0,"ownername":"komkrit_charoen","owner_datecreate":"2013-09-08 20:42:41","realname":"around_the_world","count_views":"4899","count_faves":"6","count_comments":"1","can_comment":1,"permissions":{"permcomment":3,"permaddmeta":2},"can_addmeta":0,"can_share":1,"can_download":0,"publiceditability":{"cancomment":1,"canaddmeta":0},"isfavorite":0,"media":"photo","media_status":"ready","url_sq":"https:\/\/live.staticflickr.com\/3904\/14321309676_91bb3a2396_s.jpg","url_sq_cdn":"https:\/\/live.staticflickr.com\/3904\/14321309676_91bb3a2396_s.jpg","height_sq":75,"width_sq":75,"url_q":"https:\/\/live.staticflickr.com\/3904\/14321309676_91bb3a2396_q.jpg","url_q_cdn":"https:\/\/live.staticflickr.com\/3904\/14321309676_91bb3a2396_q.jpg","height_q":150,"width_q":150,"url_t":"https:\/\/live.staticflickr.com\/3904\/14321309676_91bb3a2396_t.jpg","url_t_cdn":"https:\/\/live.staticflickr.com\/3904\/14321309676_91bb3a2396_t.jpg","height_t":44,"width_t":100,"url_s":"https:\/\/live.staticflickr.com\/3904\/14321309676_91bb3a2396_m.jpg","url_s_cdn":"https:\/\/live.staticflickr.com\/3904\/14321309676_91bb3a2396_m.jpg","height_s":106,"width_s":240,"url_n":"https:\/\/live.staticflickr.com\/3904\/14321309676_91bb3a2396_n.jpg","url_n_cdn":"https:\/\/live.staticflickr.com\/3904\/14321309676_91bb3a2396_n.jpg","height_n":141,"width_n":320,"url_w":"https:\/\/live.staticflickr.com\/3904\/14321309676_91bb3a2396_w.jpg","url_w_cdn":"https:\/\/live.staticflickr.com\/3904\/14321309676_91bb3a2396_w.jpg","height_w":177,"width_w":400,"url_m":"https:\/\/live.staticflickr.com\/3904\/14321309676_91bb3a2396.jpg","url_m_cdn":"https:\/\/live.staticflickr.com\/3904\/14321309676_91bb3a2396.jpg","height_m":221,"width_m":500,"url_z":"https:\/\/live.staticflickr.com\/3904\/14321309676_91bb3a2396_z.jpg","url_z_cdn":"https:\/\/live.staticflickr.com\/3904\/14321309676_91bb3a2396_z.jpg","height_z":283,"width_z":640,"url_c":"https:\/\/live.staticflickr.com\/3904\/14321309676_91bb3a2396_c.jpg","url_c_cdn":"https:\/\/live.staticflickr.com\/3904\/14321309676_91bb3a2396_c.jpg","height_c":354,"width_c":800,"url_l":"https:\/\/live.staticflickr.com\/3904\/14321309676_91bb3a2396_b.jpg","url_l_cdn":"https:\/\/live.staticflickr.com\/3904\/14321309676_91bb3a2396_b.jpg","height_l":453,"width_l":1024,"url_h":"https:\/\/live.staticflickr.com\/3904\/14321309676_58bfa8e4a5_h.jpg","url_h_cdn":"https:\/\/live.staticflickr.com\/3904\/14321309676_58bfa8e4a5_h.jpg","height_h":707,"width_h":1600,"url_k":"https:\/\/live.staticflickr.com\/3904\/14321309676_cbf4f81041_k.jpg","url_k_cdn":"https:\/\/live.staticflickr.com\/3904\/14321309676_cbf4f81041_k.jpg","height_k":905,"width_k":2048,"secret_k":"cbf4f81041","secret_h":"58bfa8e4a5","pathalias":"komkrit_charoen","contact_iscontact":0,"contact_isfriend":null,"contact_isfamily":null,"ispro":1,"pro_badge":"standard"},{"id":"14157729428","owner":"101498034@N07","secret":"a2047e71c1","server":"2901","farm":3,"title":"_MG_0079","ispublic":1,"isfriend":0,"isfamily":0,"safe":0,"iconurls":{"retina":"https:\/\/farm5.staticflickr.com\/4266\/buddyicons\/101498034@N07_r.jpg?1497405071#101498034@N07","large":"https:\/\/farm5.staticflickr.com\/4266\/buddyicons\/101498034@N07_l.jpg?1497405071#101498034@N07","medium":"https:\/\/farm5.staticflickr.com\/4266\/buddyicons\/101498034@N07_m.jpg?1497405071#101498034@N07","small":"https:\/\/farm5.staticflickr.com\/4266\/buddyicons\/101498034@N07_s.jpg?1497405071#101498034@N07","default":"https:\/\/farm5.staticflickr.com\/4266\/buddyicons\/101498034@N07.jpg?1497405071#101498034@N07"},"license":"0","safety_level":"0","needs_interstitial":0,"description":{"_content":"Ultramarine"},"o_width":"2048","o_height":"1152","rotation":0,"dateupload":"1401883975","datetaken":"2014-06-04 05:07:59","datetakengranularity":"0","datetakenunknown":0,"ownername":"komkrit_charoen","owner_datecreate":"2013-09-08 20:42:41","realname":"around_the_world","count_views":"3175","count_faves":"4","count_comments":"0","can_comment":1,"permissions":{"permcomment":3,"permaddmeta":2},"can_addmeta":0,"can_share":1,"can_download":0,"publiceditability":{"cancomment":1,"canaddmeta":0},"isfavorite":0,"media":"photo","media_status":"ready","url_sq":"https:\/\/live.staticflickr.com\/2901\/14157729428_a2047e71c1_s.jpg","url_sq_cdn":"https:\/\/live.staticflickr.com\/2901\/14157729428_a2047e71c1_s.jpg","height_sq":75,"width_sq":75,"url_q":"https:\/\/live.staticflickr.com\/2901\/14157729428_a2047e71c1_q.jpg","url_q_cdn":"https:\/\/live.staticflickr.com\/2901\/14157729428_a2047e71c1_q.jpg","height_q":150,"width_q":150,"url_t":"https:\/\/live.staticflickr.com\/2901\/14157729428_a2047e71c1_t.jpg","url_t_cdn":"https:\/\/live.staticflickr.com\/2901\/14157729428_a2047e71c1_t.jpg","height_t":56,"width_t":100,"url_s":"https:\/\/live.staticflickr.com\/2901\/14157729428_a2047e71c1_m.jpg","url_s_cdn":"https:\/\/live.staticflickr.com\/2901\/14157729428_a2047e71c1_m.jpg","height_s":135,"width_s":240,"url_n":"https:\/\/live.staticflickr.com\/2901\/14157729428_a2047e71c1_n.jpg","url_n_cdn":"https:\/\/live.staticflickr.com\/2901\/14157729428_a2047e71c1_n.jpg","height_n":180,"width_n":320,"url_w":"https:\/\/live.staticflickr.com\/2901\/14157729428_a2047e71c1_w.jpg","url_w_cdn":"https:\/\/live.staticflickr.com\/2901\/14157729428_a2047e71c1_w.jpg","height_w":225,"width_w":400,"url_m":"https:\/\/live.staticflickr.com\/2901\/14157729428_a2047e71c1.jpg","url_m_cdn":"https:\/\/live.staticflickr.com\/2901\/14157729428_a2047e71c1.jpg","height_m":281,"width_m":500,"url_z":"https:\/\/live.staticflickr.com\/2901\/14157729428_a2047e71c1_z.jpg","url_z_cdn":"https:\/\/live.staticflickr.com\/2901\/14157729428_a2047e71c1_z.jpg","height_z":360,"width_z":640,"url_c":"https:\/\/live.staticflickr.com\/2901\/14157729428_a2047e71c1_c.jpg","url_c_cdn":"https:\/\/live.staticflickr.com\/2901\/14157729428_a2047e71c1_c.jpg","height_c":450,"width_c":800,"url_l":"https:\/\/live.staticflickr.com\/2901\/14157729428_a2047e71c1_b.jpg","url_l_cdn":"https:\/\/live.staticflickr.com\/2901\/14157729428_a2047e71c1_b.jpg","height_l":576,"width_l":1024,"url_h":"https:\/\/live.staticflickr.com\/2901\/14157729428_b38adc432e_h.jpg","url_h_cdn":"https:\/\/live.staticflickr.com\/2901\/14157729428_b38adc432e_h.jpg","height_h":900,"width_h":1600,"url_k":"https:\/\/live.staticflickr.com\/2901\/14157729428_16ec477f0d_k.jpg","url_k_cdn":"https:\/\/live.staticflickr.com\/2901\/14157729428_16ec477f0d_k.jpg","height_k":1152,"width_k":2048,"secret_k":"16ec477f0d","secret_h":"b38adc432e","pathalias":"komkrit_charoen","contact_iscontact":0,"contact_isfriend":null,"contact_isfamily":null,"ispro":1,"pro_badge":"standard"},{"id":"14157853877","owner":"101498034@N07","secret":"77a0c395f1","server":"3879","farm":4,"title":"_MG_7126","ispublic":1,"isfriend":0,"isfamily":0,"safe":0,"iconurls":{"retina":"https:\/\/farm5.staticflickr.com\/4266\/buddyicons\/101498034@N07_r.jpg?1497405071#101498034@N07","large":"https:\/\/farm5.staticflickr.com\/4266\/buddyicons\/101498034@N07_l.jpg?1497405071#101498034@N07","medium":"https:\/\/farm5.staticflickr.com\/4266\/buddyicons\/101498034@N07_m.jpg?1497405071#101498034@N07","small":"https:\/\/farm5.staticflickr.com\/4266\/buddyicons\/101498034@N07_s.jpg?1497405071#101498034@N07","default":"https:\/\/farm5.staticflickr.com\/4266\/buddyicons\/101498034@N07.jpg?1497405071#101498034@N07"},"license":"0","safety_level":"0","needs_interstitial":0,"description":{"_content":"Light of Wisdom"},"o_width":"2048","o_height":"1358","rotation":0,"dateupload":"1401883532","datetaken":"2014-06-04 11:59:13","datetakengranularity":"0","datetakenunknown":0,"ownername":"komkrit_charoen","owner_datecreate":"2013-09-08 20:42:41","realname":"around_the_world","count_views":"5839","count_faves":"5","count_comments":"1","can_comment":1,"permissions":{"permcomment":3,"permaddmeta":2},"can_addmeta":0,"can_share":1,"can_download":0,"publiceditability":{"cancomment":1,"canaddmeta":0},"isfavorite":0,"media":"photo","media_status":"ready","url_sq":"https:\/\/live.staticflickr.com\/3879\/14157853877_77a0c395f1_s.jpg","url_sq_cdn":"https:\/\/live.staticflickr.com\/3879\/14157853877_77a0c395f1_s.jpg","height_sq":75,"width_sq":75,"url_q":"https:\/\/live.staticflickr.com\/3879\/14157853877_77a0c395f1_q.jpg","url_q_cdn":"https:\/\/live.staticflickr.com\/3879\/14157853877_77a0c395f1_q.jpg","height_q":150,"width_q":150,"url_t":"https:\/\/live.staticflickr.com\/3879\/14157853877_77a0c395f1_t.jpg","url_t_cdn":"https:\/\/live.staticflickr.com\/3879\/14157853877_77a0c395f1_t.jpg","height_t":66,"width_t":100,"url_s":"https:\/\/live.staticflickr.com\/3879\/14157853877_77a0c395f1_m.jpg","url_s_cdn":"https:\/\/live.staticflickr.com\/3879\/14157853877_77a0c395f1_m.jpg","height_s":159,"width_s":240,"url_n":"https:\/\/live.staticflickr.com\/3879\/14157853877_77a0c395f1_n.jpg","url_n_cdn":"https:\/\/live.staticflickr.com\/3879\/14157853877_77a0c395f1_n.jpg","height_n":212,"width_n":320,"url_w":"https:\/\/live.staticflickr.com\/3879\/14157853877_77a0c395f1_w.jpg","url_w_cdn":"https:\/\/live.staticflickr.com\/3879\/14157853877_77a0c395f1_w.jpg","height_w":265,"width_w":400,"url_m":"https:\/\/live.staticflickr.com\/3879\/14157853877_77a0c395f1.jpg","url_m_cdn":"https:\/\/live.staticflickr.com\/3879\/14157853877_77a0c395f1.jpg","height_m":332,"width_m":500,"url_z":"https:\/\/live.staticflickr.com\/3879\/14157853877_77a0c395f1_z.jpg","url_z_cdn":"https:\/\/live.staticflickr.com\/3879\/14157853877_77a0c395f1_z.jpg","height_z":424,"width_z":640,"url_c":"https:\/\/live.staticflickr.com\/3879\/14157853877_77a0c395f1_c.jpg","url_c_cdn":"https:\/\/live.staticflickr.com\/3879\/14157853877_77a0c395f1_c.jpg","height_c":530,"width_c":800,"url_l":"https:\/\/live.staticflickr.com\/3879\/14157853877_77a0c395f1_b.jpg","url_l_cdn":"https:\/\/live.staticflickr.com\/3879\/14157853877_77a0c395f1_b.jpg","height_l":679,"width_l":1024,"url_h":"https:\/\/live.staticflickr.com\/3879\/14157853877_fbe9244ebb_h.jpg","url_h_cdn":"https:\/\/live.staticflickr.com\/3879\/14157853877_fbe9244ebb_h.jpg","height_h":1061,"width_h":1600,"url_k":"https:\/\/live.staticflickr.com\/3879\/14157853877_9d7ec1b7da_k.jpg","url_k_cdn":"https:\/\/live.staticflickr.com\/3879\/14157853877_9d7ec1b7da_k.jpg","height_k":1358,"width_k":2048,"secret_k":"9d7ec1b7da","secret_h":"fbe9244ebb","pathalias":"komkrit_charoen","contact_iscontact":0,"contact_isfriend":null,"contact_isfamily":null,"ispro":1,"pro_badge":"standard"}],"max_allowed_results":4000,"max_allowed_pages":8,"can_share":1},"user":{"nsid":"101498034@N07","path_alias":"komkrit_charoen","username":"komkrit_charoen","ispro":1,"is_ad_free":0,"is_deleted":0,"pro_badge":"standard","iconurls":{"retina":"https:\/\/farm5.staticflickr.com\/4266\/buddyicons\/101498034@N07_r.jpg?1497405071#101498034@N07","large":"https:\/\/farm5.staticflickr.com\/4266\/buddyicons\/101498034@N07_l.jpg?1497405071#101498034@N07","medium":"https:\/\/farm5.staticflickr.com\/4266\/buddyicons\/101498034@N07_m.jpg?1497405071#101498034@N07","small":"https:\/\/farm5.staticflickr.com\/4266\/buddyicons\/101498034@N07_s.jpg?1497405071#101498034@N07","default":"https:\/\/farm5.staticflickr.com\/4266\/buddyicons\/101498034@N07.jpg?1497405071#101498034@N07"},"realname":"around_the_world","datecreate":"2013-09-08 20:42:41"},"stat":"ok"}